<svg xmlns="http://www.w3.org/2000/svg" viewBox="0 0 72.47 63.64">
  <defs>
    <style>
      .cls-1 {
        fill: #2b292e;
      }
    </style>
  </defs>
  <title>Asset 1</title>
  <g id="Layer_2" data-name="Layer 2">
    <g id="Layer_2-2" data-name="Layer 2">
      <path class="cls-1" d="M62.15,62.74a35.49,35.49,0,0,0,9.8-6.5c3.2-33.3-8.8-56.3-23.4-53.3,0,0-19-10.5-37.6,8.2C-2.85,25-1,43.24,2.65,57.64c0,0,2.9,3.3,9.5,6l.3-34.6c1.3-3.6,2.7-6.9,2.7-6.9a37.38,37.38,0,0,0,16-3.1,37.92,37.92,0,0,0,14.3-10.9c8.8,2.7,13.4,12.9,15.6,20.1Z"/>
    </g>
  </g>
</svg>
