<svg xmlns="http://www.w3.org/2000/svg" viewBox="0 0 63.76 49.2">
  <defs>
    <style>
      .cls-1 {
        fill: #362400;
      }
    </style>
  </defs>
  <title>Asset 1</title>
  <g id="Layer_2" data-name="Layer 2">
    <g id="Layer_4" data-name="Layer 4">
      <path class="cls-1" d="M17.78,8.9c-9.3,6.4-15.4,13.5-15.4,26.9S.18,49.2.18,49.2-4.32,0,31.88,0s31.7,49.2,31.7,49.2-2.2,0-2.2-13.4S55.38,15.2,46,8.9c0,0-7.2,4.1-14.1,4.1S17.78,8.9,17.78,8.9Z"/>
    </g>
  </g>
</svg>
