<svg xmlns="http://www.w3.org/2000/svg" viewBox="0 0 62 47.33">
  <defs>
    <style>
      .cls-1 {
        fill: #383229;
      }

      .cls-2 {
        fill: #d5c088;
      }

      .cls-3 {
        fill: #3c2a27;
      }

      .cls-4 {
        fill: #4e463d;
      }

      .cls-5 {
        fill: #211915;
      }
    </style>
  </defs>
  <title>Asset 1</title>
  <g id="Layer_2" data-name="Layer 2">
    <g id="Layer_4" data-name="Layer 4">
      <g id="cara_01" data-name="cara 01">
        <g>
          <path class="cls-1" d="M6.2,7.93c0-5.7,9.3-10.2,14.1-6.7,1.4,1-.1,3.5-.1,3.5a10.28,10.28,0,0,0-8.4-.9C8.8,4.63,6.2,7.93,6.2,7.93Z"/>
          <path class="cls-1" d="M55.7,7.93c0-5.7-9.3-10.2-14.1-6.7-1.4,1,.1,3.5.1,3.5a10.28,10.28,0,0,1,8.4-.9C53.1,4.63,55.7,7.93,55.7,7.93Z"/>
        </g>
        <polygon class="cls-2" points="31 2.33 26.1 21.83 36.3 21.83 31 2.33"/>
        <g>
          <path class="cls-3" d="M10.1,13.33s1.5.1,4.1.5c1.3.2,4.1.5,4.1.5s.4-3.6-2.5-4.4C12.2,8.83,10.1,13.33,10.1,13.33Z"/>
          <path class="cls-3" d="M51.8,13.33s-1.5.1-4.1.5c-1.3.2-4.1.5-4.1.5s-.4-3.6,2.5-4.4C49.7,8.83,51.8,13.33,51.8,13.33Z"/>
        </g>
        <path class="cls-4" d="M60,9.73s-.7,13.3-7.9,21S44.3,23,31.1,23s-13.9,15.4-21,7.7-7.9-21-7.9-21L0,21.63A26,26,0,0,0,10.1,39c9.5,7.4,16.4,8.3,20.9,8.3s11.7-.9,21.2-8.3A24.85,24.85,0,0,0,62,21.63ZM35.9,31.93c-2.2,1.2-3.9-2.8-3.9-2.8H30.5s-1.6,4-3.7,2.8-2.8-4.3-2.8-4.3a17.5,17.5,0,0,0,7.4-2.8,16.22,16.22,0,0,0,7.4,2.8C38.7,27.63,38.1,30.73,35.9,31.93Z"/>
        <path class="cls-5" d="M27.2,25.83a9.34,9.34,0,0,0,2,1,4.33,4.33,0,0,0,1.9.4,5.55,5.55,0,0,0,3.7-1.5,3.45,3.45,0,0,1-1.2,2.1,3.29,3.29,0,0,1-2.5.8,3.92,3.92,0,0,1-2.4-.9A2.85,2.85,0,0,1,27.2,25.83Z"/>
      </g>
    </g>
  </g>
</svg>
